@startuml

skinparam packageStyle rectangle
skinparam backgroundColor white

package Commands  {

BaseEvent <|-- CreateTopicCommand
CreateTopicCommand <|-- ImportTopicCommand
BaseEvent <|-- DeleteTopicCommand
BaseEvent <|-- AddAttributeCommand
BaseEvent <|-- AddRoleTargetCommand
AddRoleTargetCommand <|-- AddToCollectionCommand
AddToCollectionCommand <|-- MergeConceptsCommand
BaseEvent <|-- RemoveFromCollectionCommand
RemoveFromCollectionCommand <|-- UnmergeConceptCommand
BaseEvent <|-- SplitConceptCommand

CreateTopicCommand : kId topicId
DeleteTopicCommand : kId topicId
DeleteTopicCommand : kRealmId realmId

ImportTopicCommand : kId originalTopicId
ImportTopicCommand : kRealmId originalTopicRealmId

AddAttributeCommand : kId topicId
AddAttributeCommand : kId attributeType
AddAttributeCommand : kId attributeTypeRealmId
AddAttributeCommand : ?kId replacingAttributeId
AddAttributeCommand : ?kId replacingAttributeRealmId
AddAttributeCommand : any value

AddRoleTargetCommand :  kId topicId
AddRoleTargetCommand :  kId roleId
AddRoleTargetCommand :  ?kRealmId roleRealmId
AddRoleTargetCommand :  kId actorId
AddRoleTargetCommand :  ?kRealmId actorRealmId
AddRoleTargetCommand :  ?kId beforeActorId
AddRoleTargetCommand :  ?kRealmId beforeActorRealmId

RemoveFromCollectionCommand : Collection container
RemoveFromCollectionCommand : Concept content

RemoveFromCollectionCommand : kId topicId
RemoveFromCollectionCommand : ?kId bindingId
RemoveFromCollectionCommand : kId actorId
RemoveFromCollectionCommand : ?kRealmId actorRealmId

SplitConceptCommand : kId topicId

UnmergeConceptCommand : kId topicId
UnmergeConceptCommand : ?kId bindingId
UnmergeConceptCommand : kId mergedConceptId
UnmergeConceptCommand : ?kRealmId mergedConceptRealmId

}
package Events {

BaseEvent <|-- SubEvent

SubEvent <|-- TargetTopicEventT
SubEvent : BaseCommand fromCommand
TargetTopicEventT : kId topicId

TargetTopicEventT <|-- CreateTopicEvent
CreateTopicEvent -left-> CreateTopicCommand #blue
TargetTopicEventT <|-- ImportTopicEvent
SubEvent <|-- DeleteTopicEvent
DeleteTopicEvent -left-> DeleteTopicCommand #blue
SubEvent <|-- TranscludeTopicEvent
TargetTopicEventT <|-- AddAttributeEvent
AddAttributeEvent -left-> AddAttributeCommand #blue
TargetTopicEventT <|-- AddRoleTargetEvent
AddRoleTargetEvent -left-> AddRoleTargetCommand #blue
SubEvent <|-- RejectEvent
TargetTopicEventT <|-- AddToCollectionEvent
AddToCollectionEvent -left-> AddToCollectionCommand #blue
SubEvent <|-- RemoveFromCollectionEvent
RemoveFromCollectionEvent -left-> RemoveFromCollectionCommand #blue
SubEvent <|-- ErrorEvent

AddRoleTargetEvent : Relation association
AddRoleTargetEvent : Concept player
AddRoleTargetEvent : Role role
AddRoleTargetEvent : RoleBinding insertBefore


AddToCollectionEvent : Collection container
AddToCollectionEvent : Concept content

RemoveFromCollectionEvent : Collection container
RemoveFromCollectionEvent : Concept content

AddAttributeEvent : Concept target
AddAttributeEvent : Concept attributeLabel
AddAttributeEvent : value
AddAttributeEvent : boolean replace

DeleteTopicEvent : Concept target
ImportTopicEvent : Concept target
ErrorEvent : String message

}

Commands -down- Events

@enduml
